subject,block,type,req_prep_time,prep_time,want,resp,nogo,nogo_this,correct
alex,10,free,0,0.34672137899997324,3,3,0,0,1
alex,10,free,0,0.13136504499971124,2,2,0,0,1
alex,10,free,0,0.00945705700041799,1,1,0,0,1
alex,10,free,0,-0.010185582999838516,0,0,0,0,1
alex,10,free,0,0.5265985840001122,1,1,0,0,1
alex,10,free,0,0.4334001150000404,2,2,0,0,1
alex,10,free,0,0.3662465689999408,2,2,0,0,1
alex,10,free,0,0.351708791999954,1,1,0,0,1
alex,10,free,0,0.3893055439998534,1,1,0,0,1
alex,10,free,0,0.40228639099996144,0,0,0,0,1
alex,10,free,0,0.3918924549998337,1,1,0,0,1
alex,10,free,0,0.46503422700016017,0,0,0,0,1
alex,10,free,0,0.4845828520001305,2,2,0,0,1
alex,10,free,0,0.4317595469997286,1,1,0,0,1
alex,10,free,0,0.5205274049999389,3,3,0,0,1
alex,10,free,0,0.41379188599967165,3,3,0,0,1
alex,10,free,0,0.3235641100000066,3,3,0,0,1
alex,10,free,0,0.44253527599994413,1,1,0,0,1
alex,10,free,0,0.32179242799975327,1,1,0,0,1
alex,10,free,0,0.299665424000068,1,1,0,0,1
alex,10,free,0,0.35165527499975724,3,2,0,0,0
alex,10,free,0,0.5496914649997962,0,0,0,0,1
alex,10,free,0,0.5045835189998797,2,2,0,0,1
alex,10,free,0,0.5862493889999314,0,0,0,0,1
alex,10,free,0,0.6668381920003412,3,3,0,0,1
alex,10,free,0,0.5003164959998685,1,1,0,0,1
alex,10,free,0,0.5903146809996542,0,0,0,0,1
alex,10,free,0,0.4375189349998436,0,0,0,0,1
alex,10,free,0,0.6037702550001995,0,0,0,0,1
alex,10,free,0,0.877717403999668,0,0,0,0,1
alex,10,free,0,0.5912891630000559,3,3,0,0,1
alex,10,free,0,0.6424241360000451,3,1,0,0,0
alex,10,free,0,0.43063004399982674,1,1,0,0,1
alex,10,free,0,0.5221389650000674,2,2,0,0,1
alex,10,free,0,0.3728861859999597,2,2,0,0,1
alex,10,free,0,0.3881344239998725,1,1,0,0,1
alex,10,free,0,0.5900396129995897,2,0,0,0,0
alex,10,free,0,0.41316432999974495,2,2,0,0,1
alex,10,free,0,0.48619374500003687,3,0,0,0,0
alex,10,free,0,0.4005723969999053,2,1,0,0,0
alex,10,free,0,0.4036446300001444,2,2,0,0,1
alex,10,free,0,0.39426228000002084,2,2,0,0,1
alex,10,free,0,0.5017462929999965,1,1,0,0,1
alex,10,free,0,0.4383349240001735,2,2,0,0,1
alex,10,free,0,0.5380998380001074,0,0,0,0,1
alex,10,free,0,0.5273712690000139,1,1,0,0,1
alex,10,free,0,0.4841315189996749,0,0,0,0,1
alex,10,free,0,0.45801665299995875,1,1,0,0,1
alex,10,free,0,0.47162045899995064,3,3,0,0,1
alex,10,free,0,0.36264631999983976,3,3,0,0,1
alex,10,free,0,0.4076288230003229,1,1,0,0,1
alex,10,free,0,0.3302075659998991,1,1,0,0,1
alex,10,free,0,0.4886973810002928,2,2,0,0,1
alex,10,free,0,0.39591416299981574,1,1,0,0,1
alex,10,free,0,0.5445390009999755,0,0,0,0,1
alex,10,free,0,0.37895522700000583,0,1,0,0,0
alex,10,free,0,0.46916741399991224,3,2,0,0,0
alex,10,free,0,0.5830330989997492,2,2,0,0,1
alex,10,free,0,0.5792840919998525,0,0,0,0,1
alex,10,free,0,0.5876844340000389,3,3,0,0,1
alex,10,free,0,0.9581440030001431,0,0,0,0,1
alex,10,free,0,0.5808897790002447,1,1,0,0,1
alex,10,free,0,0.4361671249998835,0,0,0,0,1
alex,10,free,0,0.7288404970004194,3,3,0,0,1
alex,10,free,0,0.6499066920000587,1,1,0,0,1
alex,10,free,0,0.47954454099999566,2,2,0,0,1
alex,10,free,0,0.7494044589998339,3,3,0,0,1
alex,10,free,0,0.7737159009998322,0,0,0,0,1
alex,10,free,0,0.48329806900028416,3,1,0,0,0
alex,10,free,0,0.47200523399988015,1,1,0,0,1
alex,10,free,0,0.4193658710000818,2,2,0,0,1
alex,10,free,0,0.5163576589998229,0,0,0,0,1
alex,10,free,0,0.8338445819999833,3,3,0,0,1
alex,10,free,0,0.45515102899980775,1,1,0,0,1
alex,10,free,0,0.3482310829999733,1,1,0,0,1
alex,10,free,0,0.5560044149997339,2,2,0,0,1
alex,10,free,0,0.3210102600000937,2,2,0,0,1
alex,10,free,0,0.5000816810002107,0,0,0,0,1
alex,10,free,0,0.6048680349999813,1,3,0,0,0
alex,10,free,0,0.41931066300003295,2,2,0,0,1
alex,10,free,0,0.40689340600010837,1,1,0,0,1
alex,10,free,0,0.372855587000231,3,2,0,0,0
alex,10,free,0,0.5424749740000152,2,2,0,0,1
alex,10,free,0,0.5695567179996033,3,3,0,0,1
alex,10,free,0,0.516794922000372,0,0,0,0,1
alex,10,free,0,0.5042775960000654,2,2,0,0,1
alex,10,free,0,0.5246833210003388,0,0,0,0,1
alex,10,free,0,0.5604332870002509,2,2,0,0,1
alex,10,free,0,0.5647516760000144,3,3,0,0,1
alex,10,free,0,0.3964623209999445,3,3,0,0,1
alex,10,free,0,0.46795840300001146,0,0,0,0,1
alex,10,free,0,0.44651643599991075,3,3,0,0,1
alex,10,free,0,0.41975678399967364,3,3,0,0,1
alex,10,free,0,0.41293278400007694,3,3,0,0,1
alex,10,free,0,0.4418496299999788,0,0,0,0,1
alex,10,free,0,0.40136528099992574,3,3,0,0,1
alex,10,free,0,0.5533757129996957,0,0,0,0,1
alex,10,free,0,0.529681057000289,2,1,0,0,0
alex,10,free,0,0.3826299199999994,2,2,0,0,1
alex,10,free,0,0.5466328570000769,3,3,0,0,1
alex,10,free,0,0.513538527000037,0,0,0,0,1
alex,10,free,0,0.543142294000063,1,1,0,0,1
alex,10,free,0,0.4802470270001322,2,0,0,0,0
alex,10,free,0,0.5166606259999753,0,0,0,0,1
