subject,block,type,req_prep_time,prep_time,want,resp,nogo,nogo_this,correct
alex,12,forced,1.2,1.1356682310001815,3,3,1,0,1
alex,12,forced,1.2,1.1914161100003184,2,2,1,1,0
alex,12,forced,1.2,1.1711755580004137,1,1,1,0,1
alex,12,forced,1.2,1.161280190999605,0,0,1,1,0
alex,12,forced,0.31666666666666665,0.3818052159999752,3,1,1,0,0
alex,12,forced,0.6166666666666667,0.5713552039997012,2,1,1,1,0
alex,12,forced,0.6,0.5598319489999994,3,3,1,0,1
alex,12,forced,0.65,0.6058309879999797,3,3,1,0,1
alex,12,forced,0.6333333333333333,0.6175625849999051,0,-1,1,1,1
alex,12,forced,0.5,0.5379415299998982,1,1,1,0,1
alex,12,forced,0.16666666666666666,0.2043871420000869,3,3,1,0,1
alex,12,forced,0.43333333333333335,0.41729444699994933,2,-1,1,1,1
alex,12,forced,0.6,0.5839319859999705,0,-1,1,1,1
alex,12,forced,0.3333333333333333,0.3173872039999879,0,-1,1,1,1
alex,12,forced,0.26666666666666666,0.339439444999698,1,1,1,0,1
alex,12,forced,0.36666666666666664,0.35073638700014276,2,-1,1,1,1
alex,12,forced,0.7666666666666666,0.7344544760003373,3,3,1,0,1
alex,12,forced,0.16666666666666666,0.15117361199991142,0,-1,1,1,1
alex,12,forced,0.5666666666666667,0.7501983939996535,2,2,1,1,0
alex,12,forced,0.11666666666666667,0.30549740400010705,2,1,1,1,0
alex,12,forced,0.7,0.6680025399996339,3,3,1,0,1
alex,12,forced,0.08333333333333333,0.04209765199948379,1,1,1,0,1
alex,12,forced,0.1,0.08427419099989497,2,-1,1,1,1
alex,12,forced,0.6166666666666667,0.600523407000128,2,-1,1,1,1
alex,12,forced,0.06666666666666667,0.13003780900044148,1,1,1,0,1
alex,12,forced,0.16666666666666666,0.20791608399986217,1,3,1,0,0
alex,12,forced,0.05,0.016736941999624833,1,1,1,0,1
alex,12,forced,0.05,0.034319678999781944,3,-1,1,0,0
alex,12,forced,0.11666666666666667,0.09491234799997983,3,1,1,0,0
alex,12,forced,0.1,0.09393405899982099,1,1,1,0,1
alex,12,forced,0.36666666666666664,0.3746950479994666,3,3,1,0,1
alex,12,forced,0.4,0.3840682599996399,2,-1,1,1,1
alex,12,forced,0.15,0.153091583999867,0,1,1,1,0
alex,12,forced,0.7,0.6997675710003932,3,3,1,0,1
alex,12,forced,0.3333333333333333,0.3154325890000109,2,1,1,1,0
alex,12,forced,0.5333333333333333,0.5338754019999215,3,3,1,0,1
alex,12,forced,0.7666666666666666,0.7226655309996204,1,1,1,0,1
alex,12,forced,0.23333333333333334,0.21052593900049033,0,3,1,1,0
alex,12,forced,0.5833333333333334,0.5218745600000148,1,1,1,0,1
alex,12,forced,0.2833333333333333,0.396686950000003,0,1,1,1,0
alex,12,forced,0.05,0.045269727999766474,1,1,1,0,1
alex,12,forced,0.7833333333333333,0.7671225600000071,2,-1,1,1,1
alex,12,forced,0.7166666666666667,0.7356974299996182,0,1,1,1,0
alex,12,forced,0.45,0.4339728639997702,0,3,1,1,0
alex,12,forced,0.43333333333333335,0.4732836970001699,2,2,1,1,0
alex,12,forced,0.55,0.5107590560000972,1,1,1,0,1
alex,12,forced,0.7166666666666667,0.7919199640000443,2,1,1,1,0
alex,12,forced,0.2833333333333333,0.2673062410001876,2,-1,1,1,1
alex,12,forced,0.4666666666666667,0.47371005800050625,1,1,1,0,1
alex,12,forced,0.1,0.10327624799992918,1,1,1,0,1
alex,12,forced,0.48333333333333334,0.4675592120000147,2,-1,1,1,1
alex,12,forced,0.55,0.5103572140001233,1,1,1,0,1
alex,12,forced,0.06666666666666667,0.051208385000154566,3,-1,1,0,0
alex,12,forced,0.2,0.17590379099965503,2,1,1,1,0
alex,12,forced,0.05,0.02948693800044566,2,3,1,1,0
alex,12,forced,0.11666666666666667,0.1564148149996072,2,1,1,1,0
alex,12,forced,0.08333333333333333,0.06775087600026386,3,-1,1,0,0
alex,12,forced,0.4666666666666667,0.48399750799990215,1,1,1,0,1
alex,12,forced,0.2833333333333333,0.2909122030000617,2,1,1,1,0
alex,12,forced,0.6,0.6614799330004644,1,1,1,0,1
alex,12,forced,0.3,0.2569126910002524,3,3,1,0,1
alex,12,forced,0.08333333333333333,0.06969143300011638,0,2,1,1,0
alex,12,forced,0.08333333333333333,0.1390139969998927,3,3,1,0,1
alex,12,forced,0.8,0.8117811300003268,1,1,1,0,1
alex,12,forced,0.23333333333333334,0.1824412089999896,3,1,1,0,0
alex,12,forced,0.36666666666666664,0.350747193999996,0,-1,1,1,1
alex,12,forced,0.7833333333333333,0.7672457899996517,0,-1,1,1,1
alex,12,forced,0.6333333333333333,0.6025693920000776,1,3,1,0,0
alex,12,forced,0.26666666666666666,0.2552943340006095,3,1,1,0,0
alex,12,forced,0.5333333333333333,0.5223613739999564,0,1,1,1,0
alex,12,forced,0.1,0.08419892199963219,2,-1,1,1,1
alex,12,forced,0.4166666666666667,0.37332008900011715,1,1,1,0,1
alex,12,forced,0.7833333333333333,0.7671292620000714,0,-1,1,1,1
alex,12,forced,0.31666666666666665,0.3007721229999334,0,-1,1,1,1
alex,12,forced,0.7833333333333333,0.7323956330001238,3,3,1,0,1
alex,12,forced,0.55,0.5337574130001486,2,-1,1,1,1
alex,12,forced,0.4666666666666667,0.45070798199985806,0,-1,1,1,1
alex,12,forced,0.5666666666666667,0.664491273999829,2,2,1,1,0
alex,12,forced,0.6333333333333333,0.6170625849998033,0,-1,1,1,1
alex,12,forced,0.6833333333333333,0.6673355839996475,2,-1,1,1,1
alex,12,forced,0.7666666666666666,0.7502415120000478,2,-1,1,1,1
alex,12,forced,0.3333333333333333,0.48955764799984536,1,0,1,0,0
alex,12,forced,0.6666666666666666,0.7286971879998418,0,0,1,1,0
alex,12,forced,0.26666666666666666,0.13195797199978188,0,1,1,1,0
alex,12,forced,0.55,0.5339295609999681,0,-1,1,1,1
alex,12,forced,0.6833333333333333,0.5799237409996749,3,3,1,0,1
alex,12,forced,0.6666666666666666,0.6248964960000194,1,1,1,0,1
alex,12,forced,0.75,0.7773428580003383,3,3,1,0,1
alex,12,forced,0.13333333333333333,0.08249363299955803,0,1,1,1,0
alex,12,forced,0.05,0.03405206000006733,0,-1,1,1,1
alex,12,forced,0.3,0.2841471469999306,0,-1,1,1,1
alex,12,forced,0.18333333333333332,0.2766006030005883,1,3,1,0,0
alex,12,forced,0.26666666666666666,0.2909941589996379,3,1,1,0,0
alex,12,forced,0.7833333333333333,0.7552970199999436,1,1,1,0,1
alex,12,forced,0.6,0.600576787999944,0,-1,1,1,1
alex,12,forced,0.7166666666666667,0.6275249679997614,1,1,1,0,1
alex,12,forced,0.2,0.22727222099956634,3,3,1,0,1
alex,12,forced,0.43333333333333335,0.43633960800025307,3,3,1,0,1
alex,12,forced,0.21666666666666667,0.1892751599998519,2,1,1,1,0
alex,12,forced,0.5333333333333333,0.6044491940001535,3,3,1,0,1
alex,12,forced,0.5166666666666666,0.4690173219996723,3,3,1,0,1
alex,12,forced,0.7833333333333333,0.7836860659997911,2,-1,1,1,1
alex,12,forced,0.6333333333333333,0.6076157910001712,1,1,1,0,1
alex,12,forced,0.7166666666666667,0.7004291719998037,0,-1,1,1,1
