subject,block,type,req_prep_time,prep_time,want,resp,nogo,nogo_this,correct
alex,11,free,0,0.5914721230001305,3,3,1,0,1
alex,11,free,0,0.3562451749999127,2,2,1,1,0
alex,11,free,0,0.266566172000239,1,1,1,0,1
alex,11,free,0,0,0,-1,1,1,1
alex,11,free,0,0.44318197299980966,1,1,1,0,1
alex,11,free,0,0.4965347939996718,3,3,1,0,1
alex,11,free,0,0.3894293580001431,1,1,1,0,1
alex,11,free,0,0.49541701399994054,3,3,1,0,1
alex,11,free,0,0.33697024799994324,3,3,1,0,1
alex,11,free,0,0,2,-1,1,1,1
alex,11,free,0,0.512885044000086,3,3,1,0,1
alex,11,free,0,0.4285244409998086,0,1,1,1,0
alex,11,free,0,0,0,-1,1,1,1
alex,11,free,0,0.6182346379996488,3,3,1,0,1
alex,11,free,0,0.5108683739999833,2,1,1,1,0
alex,11,free,0,0,2,-1,1,1,1
alex,11,free,0,0,2,-1,1,1,1
alex,11,free,0,0.42503061399975195,0,3,1,1,0
alex,11,free,0,0,2,-1,1,1,1
alex,11,free,0,0.5100788109998575,3,3,1,0,1
alex,11,free,0,0.47774566599991886,2,1,1,1,0
alex,11,free,0,0,2,-1,1,1,1
alex,11,free,0,0.4618199290002849,1,1,1,0,1
alex,11,free,0,0.44290275200000906,0,3,1,1,0
alex,11,free,0,0.5535200899998927,3,3,1,0,1
alex,11,free,0,0.3479289100000642,3,3,1,0,1
alex,11,free,0,0,0,-1,1,1,1
alex,11,free,0,0.5498921839998729,1,1,1,0,1
alex,11,free,0,0,0,-1,1,1,1
alex,11,free,0,0.49028442600001654,1,1,1,0,1
alex,11,free,0,0.3103085820002889,1,1,1,0,1
alex,11,free,0,0.3764097750004112,1,1,1,0,1
alex,11,free,0,0,0,-1,1,1,1
alex,11,free,0,0,0,-1,1,1,1
alex,11,free,0,0,0,-1,1,1,1
alex,11,free,0,0.49267151999993075,3,3,1,0,1
alex,11,free,0,0,2,-1,1,1,1
alex,11,free,0,0,2,-1,1,1,1
alex,11,free,0,0,2,-1,1,1,1
alex,11,free,0,0.6064460180000424,1,1,1,0,1
alex,11,free,0,0,0,-1,1,1,1
alex,11,free,0,0.43670315000008486,1,1,1,0,1
alex,11,free,0,0.4077362620000713,2,3,1,1,0
alex,11,free,0,0.7658151919999909,1,1,1,0,1
alex,11,free,0,0,2,-1,1,1,1
alex,11,free,0,0.4948767470000348,3,3,1,0,1
alex,11,free,0,0.3376860090002083,3,3,1,0,1
alex,11,free,0,0.4537666960000024,2,1,1,1,0
alex,11,free,0,0,0,-1,1,1,1
alex,11,free,0,0.5345016789997317,1,1,1,0,1
alex,11,free,0,0,2,-1,1,1,1
alex,11,free,0,0.5172587739998562,1,1,1,0,1
alex,11,free,0,0.5489674400000695,3,3,1,0,1
alex,11,free,0,0.48567296000010174,1,1,1,0,1
alex,11,free,0,0.4446632839999438,3,3,1,0,1
alex,11,free,0,0,0,-1,1,1,1
alex,11,free,0,0.43922855599976174,0,0,1,1,0
alex,11,free,0,0.4176196059997892,1,1,1,0,1
alex,11,free,0,0.28675561000000016,1,1,1,0,1
alex,11,free,0,0.514668958999664,3,3,1,0,1
alex,11,free,0,0,2,-1,1,1,1
alex,11,free,0,0,0,-1,1,1,1
alex,11,free,0,0.47291839099989375,1,1,1,0,1
alex,11,free,0,0.4876393720001033,3,3,1,0,1
alex,11,free,0,0.48159582200014484,2,1,1,1,0
alex,11,free,0,0.5067231090001769,3,3,1,0,1
alex,11,free,0,0.43483868800012715,1,1,1,0,1
alex,11,free,0,0.525556904000041,3,3,1,0,1
alex,11,free,0,0.44095776900030614,1,1,1,0,1
alex,11,free,0,0.39776643400000466,1,1,1,0,1
alex,11,free,0,0.5486118310000165,2,1,1,1,0
alex,11,free,0,0.45738002799998867,3,3,1,0,1
alex,11,free,0,0.47054522400003407,0,1,1,1,0
alex,11,free,0,0.863151015999847,1,3,1,0,0
alex,11,free,0,0.5014262090003285,3,3,1,0,1
alex,11,free,0,0,0,-1,1,1,1
alex,11,free,0,0.42249668600015866,1,3,1,0,0
alex,11,free,0,0.44982208700002957,3,3,1,0,1
alex,11,free,0,0,2,-1,1,1,1
alex,11,free,0,0,0,-1,1,1,1
alex,11,free,0,0,0,-1,1,1,1
alex,11,free,0,0.5497285090000332,3,3,1,0,1
alex,11,free,0,0.4541679400003886,3,3,1,0,1
alex,11,free,0,0,0,-1,1,1,1
alex,11,free,0,0,0,-1,1,1,1
alex,11,free,0,0.5050042470002154,1,1,1,0,1
alex,11,free,0,0.4411014199999954,3,3,1,0,1
alex,11,free,0,0.35998717399979796,1,1,1,0,1
alex,11,free,0,0,0,-1,1,1,1
alex,11,free,0,0,2,-1,1,1,1
alex,11,free,0,0,0,-1,1,1,1
alex,11,free,0,0.4985165240000242,1,1,1,0,1
alex,11,free,0,0,0,-1,1,1,1
alex,11,free,0,0,0,-1,1,1,1
alex,11,free,0,0.8097089050002069,2,1,1,1,0
alex,11,free,0,0,2,-1,1,1,1
alex,11,free,0,0,2,-1,1,1,1
alex,11,free,0,0.8253305090001959,0,1,1,1,0
alex,11,free,0,0.5141383440000027,3,3,1,0,1
alex,11,free,0,0,2,-1,1,1,1
alex,11,free,0,0.43135667100023056,1,1,1,0,1
alex,11,free,0,0.3904281609998179,2,1,1,1,0
alex,11,free,0,0,2,-1,1,1,1
alex,11,free,0,0.49746841899968786,3,3,1,0,1
