subject,block,type,req_prep_time,prep_time,want,resp,nogo,nogo_this,correct
alex,14,forced,1.2,1.2092023040004278,3,3,1,0,1
alex,14,forced,1.2,1.2000774139999522,2,-1,1,1,1
alex,14,forced,1.2,1.1763837309999872,1,1,1,0,1
alex,14,forced,1.2,1.200086753999858,0,-1,1,1,1
alex,14,forced,0.6166666666666667,0.6600074289999611,1,1,1,0,1
alex,14,forced,0.18333333333333332,0.3276881140000114,1,3,1,0,0
alex,14,forced,0.05,0.034421035999730565,2,-1,1,1,1
alex,14,forced,0.45,0.43411641199991213,2,-1,1,1,1
alex,14,forced,0.5166666666666666,0.49460952400022506,3,3,1,0,1
alex,14,forced,0.43333333333333335,0.4747176949999812,0,1,1,1,0
alex,14,forced,0.5166666666666666,0.595998611000141,2,2,1,1,0
alex,14,forced,0.6333333333333333,0.617257981000239,2,-1,1,1,1
alex,14,forced,0.7666666666666666,0.750387451000097,2,-1,1,1,1
alex,14,forced,0.05,0.034318380000331716,3,-1,1,0,0
alex,14,forced,0.5833333333333334,0.5673503700002585,2,-1,1,1,1
alex,14,forced,0.06666666666666667,0.048379452000062884,1,1,1,0,1
alex,14,forced,0.06666666666666667,0.050917008000215036,3,-1,1,0,0
alex,14,forced,0.23333333333333334,0.21758142200023944,0,-1,1,1,1
alex,14,forced,0.5,0.46434084399970743,3,3,1,0,1
alex,14,forced,0.75,0.7336407160003546,0,-1,1,1,1
alex,14,forced,0.11666666666666667,0.1009313229999862,1,-1,1,0,0
alex,14,forced,0.11666666666666667,0.10413376299993615,3,1,1,0,0
alex,14,forced,0.31666666666666665,0.3010286120000274,0,-1,1,1,1
alex,14,forced,0.2833333333333333,0.2674178029999894,0,-1,1,1,1
alex,14,forced,0.15,0.2915776980003102,3,1,1,0,0
alex,14,forced,0.1,0.08802329300033307,0,1,1,1,0
alex,14,forced,0.13333333333333333,0.11759300000021544,2,-1,1,1,1
alex,14,forced,0.6333333333333333,0.634623974000533,1,1,1,0,1
alex,14,forced,0.5833333333333334,0.5658018630001607,3,3,1,0,1
alex,14,forced,0.4666666666666667,0.4504474829998799,0,-1,1,1,1
alex,14,forced,0.3,0.28453447500014595,0,-1,1,1,1
alex,14,forced,0.6166666666666667,0.6004902839998068,0,-1,1,1,1
alex,14,forced,0.26666666666666666,0.38443761199960136,1,1,1,0,1
alex,14,forced,0.06666666666666667,0.020600058999661996,1,3,1,0,0
alex,14,forced,0.5666666666666667,0.5507199990000118,2,-1,1,1,1
alex,14,forced,0.06666666666666667,0.03280331599944475,3,3,1,0,1
alex,14,forced,0.3833333333333333,0.44468557600021086,3,3,1,0,1
alex,14,forced,0.6666666666666666,0.6232182630001262,3,3,1,0,1
alex,14,forced,0.5666666666666667,0.4924298870000712,3,3,1,0,1
alex,14,forced,0.5833333333333334,0.5672586300000149,2,-1,1,1,1
alex,14,forced,0.5,0.41821431900007155,1,1,1,0,1
alex,14,forced,0.3333333333333333,0.3174957179997364,0,-1,1,1,1
alex,14,forced,0.11666666666666667,0.10096130199990516,3,-1,1,0,0
alex,14,forced,0.75,0.6997381900000619,1,1,1,0,1
alex,14,forced,0.75,0.7379394009999487,3,3,1,0,1
alex,14,forced,0.3,0.3101428350000788,3,1,1,0,0
alex,14,forced,0.5666666666666667,0.5658297049999419,2,1,1,1,0
alex,14,forced,0.08333333333333333,0.06739890999988352,3,-1,1,0,0
alex,14,forced,0.5,0.44970345799993083,3,3,1,0,1
alex,14,forced,0.55,0.5338736530000461,2,-1,1,1,1
alex,14,forced,0.2833333333333333,0.3229082689999814,2,1,1,1,0
alex,14,forced,0.36666666666666664,0.3509972580002796,0,-1,1,1,1
alex,14,forced,0.15,0.13408617900022368,0,-1,1,1,1
alex,14,forced,0.5833333333333334,0.5693471939998744,1,1,1,0,1
alex,14,forced,0.16666666666666666,0.15091623300013457,1,-1,1,0,0
alex,14,forced,0.05,0.028018036000048596,3,3,1,0,1
alex,14,forced,0.6166666666666667,0.5908179080006448,1,1,1,0,1
alex,14,forced,0.6,0.5838789100001123,0,-1,1,1,1
alex,14,forced,0.31666666666666665,0.45786595299978217,2,1,1,1,0
alex,14,forced,0.11666666666666667,0.1012023689998387,3,-1,1,0,0
alex,14,forced,0.5333333333333333,0.4833879990001151,3,3,1,0,1
alex,14,forced,0.7833333333333333,0.767267057999834,2,-1,1,1,1
alex,14,forced,0.2,0.18420841800007115,1,-1,1,0,0
alex,14,forced,0.45,0.411750437000137,1,1,1,0,1
alex,14,forced,0.23333333333333334,0.3560652629998913,1,1,1,0,1
alex,14,forced,0.65,0.6339572310001131,0,-1,1,1,1
alex,14,forced,0.48333333333333334,0.4674394329997995,0,-1,1,1,1
alex,14,forced,0.7166666666666667,0.7005288250002195,3,3,1,0,1
alex,14,forced,0.5,0.4839451159999044,0,-1,1,1,1
alex,14,forced,0.35,0.41155431400011366,1,1,1,0,1
alex,14,forced,0.43333333333333335,0.3948751699999775,1,1,1,0,1
alex,14,forced,0.8,0.7836277650001648,2,-1,1,1,1
alex,14,forced,0.7166666666666667,0.7005600589998722,0,-1,1,1,1
alex,14,forced,0.4666666666666667,0.48175897900000564,1,1,1,0,1
alex,14,forced,0.11666666666666667,0.1133703739997145,0,3,1,1,0
alex,14,forced,0.35,0.3693888290003997,1,1,1,0,1
alex,14,forced,0.25,0.371127690999856,1,1,1,0,1
alex,14,forced,0.15,0.2188627200002884,2,3,1,1,0
alex,14,forced,0.5666666666666667,0.5502072160000353,2,-1,1,1,1
alex,14,forced,0.08333333333333333,0.08577025299973684,0,1,1,1,0
alex,14,forced,0.36666666666666664,0.4360129110004891,0,1,1,1,0
alex,14,forced,0.1,0.08445353000006439,1,-1,1,0,0
alex,14,forced,0.6333333333333333,0.5947390149999592,3,3,1,0,1
alex,14,forced,0.23333333333333334,0.23930813400011175,3,1,1,0,0
alex,14,forced,0.65,0.633835974000067,2,-1,1,1,1
alex,14,forced,0.35,0.3342585480002527,2,-1,1,1,1
alex,14,forced,0.3833333333333333,0.3675399649999236,0,-1,1,1,1
alex,14,forced,0.26666666666666666,0.25067347799977147,0,-1,1,1,1
alex,14,forced,0.4,0.4846905429999424,1,1,1,0,1
alex,14,forced,0.5333333333333333,0.5333593560001646,2,-1,1,1,1
alex,14,forced,0.15,0.1997354200002519,2,1,1,1,0
alex,14,forced,0.3833333333333333,0.486882498000341,1,1,1,0,1
alex,14,forced,0.6833333333333333,0.6672143539997706,0,-1,1,1,1
alex,14,forced,0.7666666666666666,0.7857932020001499,3,0,1,0,0
alex,14,forced,0.6833333333333333,0.6672095729998546,0,-1,1,1,1
alex,14,forced,0.3833333333333333,0.3674749740001062,2,-1,1,1,1
alex,14,forced,0.11666666666666667,0.1009485170000517,1,-1,1,0,0
alex,14,forced,0.4,0.38406029900015715,2,-1,1,1,1
alex,14,forced,0.5333333333333333,0.5174086859999989,2,-1,1,1,1
alex,14,forced,0.15,0.13437510200019465,2,-1,1,1,1
alex,14,forced,0.7833333333333333,0.7413891310002327,1,1,1,0,1
alex,14,forced,0.15,0.10780864999969708,3,3,1,0,1
alex,14,forced,0.5166666666666666,0.5006670720002149,0,-1,1,1,1
alex,14,forced,0.35,0.32176952300005723,3,1,1,0,0
